…
```r
# Create new data frame for our age grouped users
fb.fc_by_age <- fb %>% 
  group_by(age) %>% 
  summarise(friend_count_mean=mean(friend_count),
            friend_count_median=median(friend_count),
            n=n()) %>% 
  arrange(age)

fb.fc_by_age
```

```
## # A tibble: 101 × 4
##      age friend_count_mean friend_count_median     n
##    <int>             <dbl>               <dbl> <int>
## 1     13          164.7500                74.0   484
## 2     14          251.3901               132.0  1925
## 3     15          347.6921               161.0  2618
## 4     16          351.9371               171.5  3086
## 5     17          350.3006               156.0  3283
## 6     18          331.1663               162.0  5196
## 7     19          333.6921               157.0  4391
## 8     20          283.4991               135.0  3769
## 9     21          235.9412               121.0  3671
## 10    22          211.3948               106.0  3032
## # ... with 91 more rows
```
…
